%YAML 1.1
%TAG !u! tag:unity3d.com,2011:
--- !u!221 &22100000
AnimatorOverrideController:
  m_ObjectHideFlags: 0
  m_CorrespondingSourceObject: {fileID: 0}
  m_PrefabInstance: {fileID: 0}
  m_PrefabAsset: {fileID: 0}
  m_Name: OrangeAnimator
  m_Controller: {fileID: 9100000, guid: 2b4a80cf207c48240bd9ee20c7c593d1, type: 2}
  m_Clips:
  - m_OriginalClip: {fileID: 7400000, guid: 056f58782355b9b418a02ea497921fbc, type: 2}
    m_OverrideClip: {fileID: 7400000, guid: de8c60ed8d5541340b8c58a9e1fb5f93, type: 2}
  - m_OriginalClip: {fileID: 7400000, guid: 982986a6688008641bc680aa4c17d5e2, type: 2}
    m_OverrideClip: {fileID: 7400000, guid: 9247b61b8db982a4bb72403653fae0d9, type: 2}
  - m_OriginalClip: {fileID: 7400000, guid: 9d0133dbb7e88b842bdf70d206f78aac, type: 2}
    m_OverrideClip: {fileID: 7400000, guid: afb1da0865fd8474fa2faac559122be6, type: 2}
  - m_OriginalClip: {fileID: 7400000, guid: bdb2b29fae914d145afc90eb4c9ee3b9, type: 2}
    m_OverrideClip: {fileID: 7400000, guid: b7e0fda825bfbfb40b80afb24aa6202e, type: 2}
  - m_OriginalClip: {fileID: 7400000, guid: 0992fbd15e346df489ebf6592f2b6948, type: 2}
    m_OverrideClip: {fileID: 7400000, guid: 9ec923a68de15b849b9f0a80f8b8b773, type: 2}
  - m_OriginalClip: {fileID: 7400000, guid: a09ede11bc9196d488b4352c31b057e5, type: 2}
    m_OverrideClip: {fileID: 7400000, guid: a3d9a5579753d1744897c82db384f231, type: 2}
  - m_OriginalClip: {fileID: 7400000, guid: 892c26bdc617abd408a3bd8485f42ed7, type: 2}
    m_OverrideClip: {fileID: 7400000, guid: 64f46756167b83541878ff755751adac, type: 2}
  - m_OriginalClip: {fileID: 7400000, guid: 0c264ab4b322c2f418c0b40851100c8b, type: 2}
    m_OverrideClip: {fileID: 7400000, guid: ceff0a06a2d23a549849f6a283a03dc6, type: 2}
  - m_OriginalClip: {fileID: 7400000, guid: a57460bb86bd37e44aaced5a6ee30677, type: 2}
    m_OverrideClip: {fileID: 7400000, guid: 95f3fb7d382dcff47815f67c8f656e67, type: 2}
  - m_OriginalClip: {fileID: 7400000, guid: de01bb4ec0de6374aa48a37cd55c40a4, type: 2}
    m_OverrideClip: {fileID: 7400000, guid: b098c364f7fafb74da0c257116176f14, type: 2}
  - m_OriginalClip: {fileID: 7400000, guid: 510c02cf536ccd547be6a6ad4247f4ca, type: 2}
    m_OverrideClip: {fileID: 7400000, guid: d40ecdcc6acd9aa4a9bd7c604112e206, type: 2}
  - m_OriginalClip: {fileID: 7400000, guid: 27e996d98bb908e4b94c5d96ff6dad92, type: 2}
    m_OverrideClip: {fileID: 7400000, guid: c21cc67254e45534e97fb20c7cbb93de, type: 2}
  - m_OriginalClip: {fileID: 7400000, guid: 2d4effd1a8551744785f6e83bd9ecf07, type: 2}
    m_OverrideClip: {fileID: 7400000, guid: e536d627bbab029479f5e549340ac563, type: 2}
  - m_OriginalClip: {fileID: 7400000, guid: afa6862e48c8bd34baeb893911823b89, type: 2}
    m_OverrideClip: {fileID: 7400000, guid: 394524d747d91fb40a9afb61d596250e, type: 2}
  - m_OriginalClip: {fileID: 7400000, guid: 4264f454da255e545aca1d0c2f838e44, type: 2}
    m_OverrideClip: {fileID: 7400000, guid: 44150ff3139b8384cb13eb4ae6884b0f, type: 2}
  - m_OriginalClip: {fileID: 7400000, guid: bdadeab95fbd18e46aab0fc803318a11, type: 2}
    m_OverrideClip: {fileID: 7400000, guid: 8bc36ecb425cfa44e97b89bd2514e4c6, type: 2}
  - m_OriginalClip: {fileID: 7400000, guid: 1f1cd217a1d9c454289a43d9bf8683d3, type: 2}
    m_OverrideClip: {fileID: 7400000, guid: 7e7383497e7f2b04eaca4c8fc024b024, type: 2}
