%YAML 1.1
%TAG !u! tag:unity3d.com,2011:
--- !u!114 &11400000
MonoBehaviour:
  m_ObjectHideFlags: 0
  m_CorrespondingSourceObject: {fileID: 0}
  m_PrefabInstance: {fileID: 0}
  m_PrefabAsset: {fileID: 0}
  m_GameObject: {fileID: 0}
  m_Enabled: 1
  m_EditorHideFlags: 0
  m_Script: {fileID: 11500000, guid: ec43d3849a7f4354f8bb77c9d34068c5, type: 3}
  m_Name: Player4
  m_EditorClassIdentifier: 
  Color: 3
  _WinColor: {r: 0.764151, g: 0, b: 0.3606593, a: 1}
  _LoseColor: {r: 0.38039216, g: 0, b: 0.2, a: 1}
  _PlayerSprite: {fileID: 21300002, guid: 561ce4c93f4f2eb4fbfe2ac74300bec4, type: 3}
