%YAML 1.1
%TAG !u! tag:unity3d.com,2011:
--- !u!1 &7115284094950722764
GameObject:
  m_ObjectHideFlags: 0
  m_CorrespondingSourceObject: {fileID: 0}
  m_PrefabInstance: {fileID: 0}
  m_PrefabAsset: {fileID: 0}
  serializedVersion: 6
  m_Component:
  - component: {fileID: 3786596246011102639}
  - component: {fileID: 2445487046286493021}
  - component: {fileID: 6444008996547879477}
  m_Layer: 31
  m_Name: Layer1
  m_TagString: Untagged
  m_Icon: {fileID: 0}
  m_NavMeshLayer: 0
  m_StaticEditorFlags: 0
  m_IsActive: 1
--- !u!4 &3786596246011102639
Transform:
  m_ObjectHideFlags: 0
  m_CorrespondingSourceObject: {fileID: 0}
  m_PrefabInstance: {fileID: 0}
  m_PrefabAsset: {fileID: 0}
  m_GameObject: {fileID: 7115284094950722764}
  m_LocalRotation: {x: -0, y: -0, z: -0, w: 1}
  m_LocalPosition: {x: 0, y: 0, z: 0}
  m_LocalScale: {x: 1, y: 1, z: 1}
  m_Children: []
  m_Father: {fileID: 3203841913325367460}
  m_RootOrder: 0
  m_LocalEulerAnglesHint: {x: 0, y: 0, z: 0}
--- !u!1839735485 &2445487046286493021
Tilemap:
  m_ObjectHideFlags: 0
  m_CorrespondingSourceObject: {fileID: 0}
  m_PrefabInstance: {fileID: 0}
  m_PrefabAsset: {fileID: 0}
  m_GameObject: {fileID: 7115284094950722764}
  m_Enabled: 1
  m_Tiles:
  - first: {x: -2, y: -3, z: 0}
    second:
      m_TileIndex: 14
      m_TileSpriteIndex: 14
      m_TileMatrixIndex: 0
      m_TileColorIndex: 0
      m_ObjectToInstantiate: {fileID: 0}
      m_TileFlags: 1
      m_ColliderType: 1
  - first: {x: -1, y: -3, z: 0}
    second:
      m_TileIndex: 15
      m_TileSpriteIndex: 15
      m_TileMatrixIndex: 0
      m_TileColorIndex: 0
      m_ObjectToInstantiate: {fileID: 0}
      m_TileFlags: 1
      m_ColliderType: 1
  - first: {x: 0, y: -3, z: 0}
    second:
      m_TileIndex: 16
      m_TileSpriteIndex: 16
      m_TileMatrixIndex: 0
      m_TileColorIndex: 0
      m_ObjectToInstantiate: {fileID: 0}
      m_TileFlags: 1
      m_ColliderType: 1
  - first: {x: 1, y: -3, z: 0}
    second:
      m_TileIndex: 17
      m_TileSpriteIndex: 17
      m_TileMatrixIndex: 0
      m_TileColorIndex: 0
      m_ObjectToInstantiate: {fileID: 0}
      m_TileFlags: 1
      m_ColliderType: 1
  - first: {x: 2, y: -3, z: 0}
    second:
      m_TileIndex: 18
      m_TileSpriteIndex: 18
      m_TileMatrixIndex: 0
      m_TileColorIndex: 0
      m_ObjectToInstantiate: {fileID: 0}
      m_TileFlags: 1
      m_ColliderType: 1
  - first: {x: 0, y: -2, z: 0}
    second:
      m_TileIndex: 13
      m_TileSpriteIndex: 13
      m_TileMatrixIndex: 0
      m_TileColorIndex: 0
      m_ObjectToInstantiate: {fileID: 0}
      m_TileFlags: 1
      m_ColliderType: 1
  - first: {x: -2, y: -1, z: 0}
    second:
      m_TileIndex: 8
      m_TileSpriteIndex: 8
      m_TileMatrixIndex: 0
      m_TileColorIndex: 0
      m_ObjectToInstantiate: {fileID: 0}
      m_TileFlags: 1
      m_ColliderType: 1
  - first: {x: -1, y: -1, z: 0}
    second:
      m_TileIndex: 9
      m_TileSpriteIndex: 9
      m_TileMatrixIndex: 0
      m_TileColorIndex: 0
      m_ObjectToInstantiate: {fileID: 0}
      m_TileFlags: 1
      m_ColliderType: 1
  - first: {x: 0, y: -1, z: 0}
    second:
      m_TileIndex: 10
      m_TileSpriteIndex: 10
      m_TileMatrixIndex: 0
      m_TileColorIndex: 0
      m_ObjectToInstantiate: {fileID: 0}
      m_TileFlags: 1
      m_ColliderType: 1
  - first: {x: 1, y: -1, z: 0}
    second:
      m_TileIndex: 11
      m_TileSpriteIndex: 11
      m_TileMatrixIndex: 0
      m_TileColorIndex: 0
      m_ObjectToInstantiate: {fileID: 0}
      m_TileFlags: 1
      m_ColliderType: 1
  - first: {x: 2, y: -1, z: 0}
    second:
      m_TileIndex: 12
      m_TileSpriteIndex: 12
      m_TileMatrixIndex: 0
      m_TileColorIndex: 0
      m_ObjectToInstantiate: {fileID: 0}
      m_TileFlags: 1
      m_ColliderType: 1
  - first: {x: -2, y: 0, z: 0}
    second:
      m_TileIndex: 3
      m_TileSpriteIndex: 3
      m_TileMatrixIndex: 0
      m_TileColorIndex: 0
      m_ObjectToInstantiate: {fileID: 0}
      m_TileFlags: 1
      m_ColliderType: 1
  - first: {x: -1, y: 0, z: 0}
    second:
      m_TileIndex: 4
      m_TileSpriteIndex: 4
      m_TileMatrixIndex: 0
      m_TileColorIndex: 0
      m_ObjectToInstantiate: {fileID: 0}
      m_TileFlags: 1
      m_ColliderType: 1
  - first: {x: 0, y: 0, z: 0}
    second:
      m_TileIndex: 5
      m_TileSpriteIndex: 5
      m_TileMatrixIndex: 0
      m_TileColorIndex: 0
      m_ObjectToInstantiate: {fileID: 0}
      m_TileFlags: 1
      m_ColliderType: 1
  - first: {x: 1, y: 0, z: 0}
    second:
      m_TileIndex: 6
      m_TileSpriteIndex: 6
      m_TileMatrixIndex: 0
      m_TileColorIndex: 0
      m_ObjectToInstantiate: {fileID: 0}
      m_TileFlags: 1
      m_ColliderType: 1
  - first: {x: 2, y: 0, z: 0}
    second:
      m_TileIndex: 7
      m_TileSpriteIndex: 7
      m_TileMatrixIndex: 0
      m_TileColorIndex: 0
      m_ObjectToInstantiate: {fileID: 0}
      m_TileFlags: 1
      m_ColliderType: 1
  - first: {x: -1, y: 1, z: 0}
    second:
      m_TileIndex: 0
      m_TileSpriteIndex: 0
      m_TileMatrixIndex: 0
      m_TileColorIndex: 0
      m_ObjectToInstantiate: {fileID: 0}
      m_TileFlags: 1
      m_ColliderType: 1
  - first: {x: 0, y: 1, z: 0}
    second:
      m_TileIndex: 1
      m_TileSpriteIndex: 1
      m_TileMatrixIndex: 0
      m_TileColorIndex: 0
      m_ObjectToInstantiate: {fileID: 0}
      m_TileFlags: 1
      m_ColliderType: 1
  - first: {x: 1, y: 1, z: 0}
    second:
      m_TileIndex: 2
      m_TileSpriteIndex: 2
      m_TileMatrixIndex: 0
      m_TileColorIndex: 0
      m_ObjectToInstantiate: {fileID: 0}
      m_TileFlags: 1
      m_ColliderType: 1
  m_AnimatedTiles: {}
  m_TileAssetArray:
  - m_RefCount: 1
    m_Data: {fileID: 11400000, guid: 348171ffb5a48594894974a5e579bd9e, type: 2}
  - m_RefCount: 1
    m_Data: {fileID: 11400000, guid: cc3092fe48b9c684f8b60fbb79547395, type: 2}
  - m_RefCount: 1
    m_Data: {fileID: 11400000, guid: 4578ec9ca563d0648a005d7d9620776f, type: 2}
  - m_RefCount: 1
    m_Data: {fileID: 11400000, guid: 0a3dc0a4fd9b67a4b98434014afdd3c7, type: 2}
  - m_RefCount: 1
    m_Data: {fileID: 11400000, guid: f638f0c73e62d584d9e0d49c7ebea76d, type: 2}
  - m_RefCount: 1
    m_Data: {fileID: 11400000, guid: 05be29c5136d7dc4b90d784bc75cea87, type: 2}
  - m_RefCount: 1
    m_Data: {fileID: 11400000, guid: 80609763b740a4d40820d627c0231d8a, type: 2}
  - m_RefCount: 1
    m_Data: {fileID: 11400000, guid: 8281c07adba2ddf43b82fd9a749b4c84, type: 2}
  - m_RefCount: 1
    m_Data: {fileID: 11400000, guid: 4bcaba3c08f072a4e9f1e40817cca149, type: 2}
  - m_RefCount: 1
    m_Data: {fileID: 11400000, guid: ec542bf10d197c747b49f794ea0eed67, type: 2}
  - m_RefCount: 1
    m_Data: {fileID: 11400000, guid: 4b76a9ef56af1c142b816e68d5002b3d, type: 2}
  - m_RefCount: 1
    m_Data: {fileID: 11400000, guid: 7ad2a55eb8553b84084357cfde654a94, type: 2}
  - m_RefCount: 1
    m_Data: {fileID: 11400000, guid: 6280621c6339b9b4c9548d7966993c43, type: 2}
  - m_RefCount: 1
    m_Data: {fileID: 11400000, guid: 64578ff242c021a4f93d46f9d2180c3b, type: 2}
  - m_RefCount: 1
    m_Data: {fileID: 11400000, guid: eeb705ea31a83f343aba6db5490b080a, type: 2}
  - m_RefCount: 1
    m_Data: {fileID: 11400000, guid: e67610935559dfe42bdc7a2bafd31b53, type: 2}
  - m_RefCount: 1
    m_Data: {fileID: 11400000, guid: 29029cf2be7c4f042b8d56fc1f1a563c, type: 2}
  - m_RefCount: 1
    m_Data: {fileID: 11400000, guid: 77817ac2e0cc5b84993d70e4a6c531f7, type: 2}
  - m_RefCount: 1
    m_Data: {fileID: 11400000, guid: b0e165354a1090042bfe7689800611e1, type: 2}
  m_TileSpriteArray:
  - m_RefCount: 1
    m_Data: {fileID: 21300000, guid: 4555283fed68be34d92242412b7d0595, type: 3}
  - m_RefCount: 1
    m_Data: {fileID: 21300002, guid: 4555283fed68be34d92242412b7d0595, type: 3}
  - m_RefCount: 1
    m_Data: {fileID: 21300004, guid: 4555283fed68be34d92242412b7d0595, type: 3}
  - m_RefCount: 1
    m_Data: {fileID: 21300006, guid: 4555283fed68be34d92242412b7d0595, type: 3}
  - m_RefCount: 1
    m_Data: {fileID: 21300008, guid: 4555283fed68be34d92242412b7d0595, type: 3}
  - m_RefCount: 1
    m_Data: {fileID: 21300010, guid: 4555283fed68be34d92242412b7d0595, type: 3}
  - m_RefCount: 1
    m_Data: {fileID: 21300012, guid: 4555283fed68be34d92242412b7d0595, type: 3}
  - m_RefCount: 1
    m_Data: {fileID: 21300014, guid: 4555283fed68be34d92242412b7d0595, type: 3}
  - m_RefCount: 1
    m_Data: {fileID: 21300016, guid: 4555283fed68be34d92242412b7d0595, type: 3}
  - m_RefCount: 1
    m_Data: {fileID: 21300018, guid: 4555283fed68be34d92242412b7d0595, type: 3}
  - m_RefCount: 1
    m_Data: {fileID: 21300020, guid: 4555283fed68be34d92242412b7d0595, type: 3}
  - m_RefCount: 1
    m_Data: {fileID: 21300022, guid: 4555283fed68be34d92242412b7d0595, type: 3}
  - m_RefCount: 1
    m_Data: {fileID: 21300024, guid: 4555283fed68be34d92242412b7d0595, type: 3}
  - m_RefCount: 1
    m_Data: {fileID: 21300026, guid: 4555283fed68be34d92242412b7d0595, type: 3}
  - m_RefCount: 1
    m_Data: {fileID: 21300028, guid: 4555283fed68be34d92242412b7d0595, type: 3}
  - m_RefCount: 1
    m_Data: {fileID: 21300030, guid: 4555283fed68be34d92242412b7d0595, type: 3}
  - m_RefCount: 1
    m_Data: {fileID: 21300032, guid: 4555283fed68be34d92242412b7d0595, type: 3}
  - m_RefCount: 1
    m_Data: {fileID: 21300034, guid: 4555283fed68be34d92242412b7d0595, type: 3}
  - m_RefCount: 1
    m_Data: {fileID: 21300036, guid: 4555283fed68be34d92242412b7d0595, type: 3}
  m_TileMatrixArray:
  - m_RefCount: 19
    m_Data:
      e00: 1
      e01: 0
      e02: 0
      e03: 0
      e10: 0
      e11: 1
      e12: 0
      e13: 0
      e20: 0
      e21: 0
      e22: 1
      e23: 0
      e30: 0
      e31: 0
      e32: 0
      e33: 1
  m_TileColorArray:
  - m_RefCount: 19
    m_Data: {r: 1, g: 1, b: 1, a: 1}
  m_AnimationFrameRate: 1
  m_Color: {r: 1, g: 1, b: 1, a: 1}
  m_Origin: {x: -2, y: -3, z: 0}
  m_Size: {x: 5, y: 5, z: 1}
  m_TileAnchor: {x: 0.5, y: 0.5, z: 0}
  m_TileOrientation: 0
  m_TileOrientationMatrix:
    e00: 1
    e01: 0
    e02: 0
    e03: 0
    e10: 0
    e11: 1
    e12: 0
    e13: 0
    e20: 0
    e21: 0
    e22: 1
    e23: 0
    e30: 0
    e31: 0
    e32: 0
    e33: 1
--- !u!483693784 &6444008996547879477
TilemapRenderer:
  m_ObjectHideFlags: 0
  m_CorrespondingSourceObject: {fileID: 0}
  m_PrefabInstance: {fileID: 0}
  m_PrefabAsset: {fileID: 0}
  m_GameObject: {fileID: 7115284094950722764}
  m_Enabled: 0
  m_CastShadows: 0
  m_ReceiveShadows: 0
  m_DynamicOccludee: 0
  m_MotionVectors: 1
  m_LightProbeUsage: 0
  m_ReflectionProbeUsage: 0
  m_RenderingLayerMask: 1
  m_RendererPriority: 0
  m_Materials:
  - {fileID: 10754, guid: 0000000000000000f000000000000000, type: 0}
  m_StaticBatchInfo:
    firstSubMesh: 0
    subMeshCount: 0
  m_StaticBatchRoot: {fileID: 0}
  m_ProbeAnchor: {fileID: 0}
  m_LightProbeVolumeOverride: {fileID: 0}
  m_ScaleInLightmap: 1
  m_PreserveUVs: 0
  m_IgnoreNormalsForChartDetection: 0
  m_ImportantGI: 0
  m_StitchLightmapSeams: 0
  m_SelectedEditorRenderState: 0
  m_MinimumChartSize: 4
  m_AutoUVMaxDistance: 0.5
  m_AutoUVMaxAngle: 89
  m_LightmapParameters: {fileID: 0}
  m_SortingLayerID: 0
  m_SortingLayer: 0
  m_SortingOrder: 0
  m_ChunkSize: {x: 32, y: 32, z: 32}
  m_ChunkCullingBounds: {x: 0, y: 0, z: 0}
  m_MaxChunkCount: 16
  m_MaxFrameAge: 16
  m_SortOrder: 0
  m_Mode: 0
  m_DetectChunkCullingBounds: 0
  m_MaskInteraction: 0
--- !u!1 &8322434146306908993
GameObject:
  m_ObjectHideFlags: 0
  m_CorrespondingSourceObject: {fileID: 0}
  m_PrefabInstance: {fileID: 0}
  m_PrefabAsset: {fileID: 0}
  serializedVersion: 6
  m_Component:
  - component: {fileID: 3203841913325367460}
  - component: {fileID: 5980704775941907515}
  m_Layer: 31
  m_Name: FloorlessCaveWalls
  m_TagString: Untagged
  m_Icon: {fileID: 0}
  m_NavMeshLayer: 0
  m_StaticEditorFlags: 0
  m_IsActive: 1
--- !u!4 &3203841913325367460
Transform:
  m_ObjectHideFlags: 0
  m_CorrespondingSourceObject: {fileID: 0}
  m_PrefabInstance: {fileID: 0}
  m_PrefabAsset: {fileID: 0}
  m_GameObject: {fileID: 8322434146306908993}
  m_LocalRotation: {x: 0, y: 0, z: 0, w: 1}
  m_LocalPosition: {x: 0, y: 0, z: 0}
  m_LocalScale: {x: 1, y: 1, z: 1}
  m_Children:
  - {fileID: 3786596246011102639}
  m_Father: {fileID: 0}
  m_RootOrder: 0
  m_LocalEulerAnglesHint: {x: 0, y: 0, z: 0}
--- !u!156049354 &5980704775941907515
Grid:
  m_ObjectHideFlags: 0
  m_CorrespondingSourceObject: {fileID: 0}
  m_PrefabInstance: {fileID: 0}
  m_PrefabAsset: {fileID: 0}
  m_GameObject: {fileID: 8322434146306908993}
  m_Enabled: 1
  m_CellSize: {x: 1, y: 1, z: 0}
  m_CellGap: {x: 0, y: 0, z: 0}
  m_CellLayout: 0
  m_CellSwizzle: 0
--- !u!114 &114649333108867112
MonoBehaviour:
  m_ObjectHideFlags: 0
  m_CorrespondingSourceObject: {fileID: 0}
  m_PrefabInstance: {fileID: 0}
  m_PrefabAsset: {fileID: 0}
  m_GameObject: {fileID: 0}
  m_Enabled: 1
  m_EditorHideFlags: 0
  m_Script: {fileID: 12395, guid: 0000000000000000e000000000000000, type: 0}
  m_Name: Palette Settings
  m_EditorClassIdentifier: 
  cellSizing: 0
